…
tbl_trials <- trials %>% 
  gather_attributes(c("TrialName", "Basename", "TrialNo")) %>% 
  as_data_frame %>% 
  distinct
tbl_trials
#> # A tibble: 144 x 3
#>                 TrialName            Basename TrialNo
#>                     <chr>               <chr>   <dbl>
#> 1  MP_Block1_001P00XA1_01 MP_Block1_001P00XA1       1
#> 2  MP_Block1_001P00XA1_02 MP_Block1_001P00XA1       2
#> 3  MP_Block1_001P00XA1_03 MP_Block1_001P00XA1       3
#> 4  MP_Block1_001P00XA1_04 MP_Block1_001P00XA1       4
#> 5  MP_Block1_001P00XA1_05 MP_Block1_001P00XA1       5
#> 6  MP_Block1_001P00XA1_06 MP_Block1_001P00XA1       6
#> 7  MP_Block1_001P00XA1_07 MP_Block1_001P00XA1       7
#> 8  MP_Block1_001P00XA1_08 MP_Block1_001P00XA1       8
#> 9  MP_Block1_001P00XA1_09 MP_Block1_001P00XA1       9
#> 10 MP_Block1_001P00XA1_10 MP_Block1_001P00XA1      10
#> # ... with 134 more rows
…
looks <- trials %>% purrr::map_df(collect_looks)

# Convert screen proportions to pixel locations
tbl_looks <- looks %>% 
  mutate(XMean = round(XMean * lwl_constants$screen_width),
         YMean = round(YMean * lwl_constants$screen_height))
pryr::object_size(tbl_looks)
#> 1.34 MB
tbl_looks
#> # A tibble: 27,736 x 6
#>                 TrialName      Time XMean YMean GazeByImageAOI GazeByAOI
#>                     <chr>     <dbl> <dbl> <dbl>          <chr>     <chr>
#> 1  MP_Block1_001P00XA1_01 -982.6214  1538   660         Target    ImageR
#> 2  MP_Block1_001P00XA1_01 -965.9668  1549   641         Target    ImageR
#> 3  MP_Block1_001P00XA1_01 -949.3122  1538   665         Target    ImageR
#> 4  MP_Block1_001P00XA1_01 -932.6576  1545   654         Target    ImageR
#> 5  MP_Block1_001P00XA1_01 -916.0030  1545   654         Target    ImageR
#> 6  MP_Block1_001P00XA1_01 -899.3484  1542   661         Target    ImageR
#> 7  MP_Block1_001P00XA1_01 -882.6938  1536   657         Target    ImageR
#> 8  MP_Block1_001P00XA1_01 -866.0392  1547   647         Target    ImageR
#> 9  MP_Block1_001P00XA1_01 -849.3846  1285   656         Target    ImageR
#> 10 MP_Block1_001P00XA1_01 -832.7300  1048   669        tracked   tracked
#> # ... with 27,726 more rows
```
…
bias_summary <- trials %>% 
  purrr::map_df(get_bias_measures, window = bias_window) %>% 
  gather(Key, Value, -TrialName)

tbl_trial_attrs <- tbl_trial_attrs_gb %>% 
  bind_rows(interpolated_times, bias_summary) %>% 
    arrange(TrialName, Key, Value)
pryr::object_size(tbl_trial_attrs)
#> 164 kB
tbl_trial_attrs
#> # A tibble: 5,059 x 3
#>                 TrialName              Key           Value
#>                     <chr>            <chr>           <chr>
#> 1  MP_Block1_001P00XA1_01        Attention   AAE_check2_10
#> 2  MP_Block1_001P00XA1_01     AttentionEnd            2634
#> 3  MP_Block1_001P00XA1_01   AttentionOnset            1720
#> 4  MP_Block1_001P00XA1_01            Audio AAE_girl_312_10
#> 5  MP_Block1_001P00XA1_01  Bias_FrameCount              15
#> 6  MP_Block1_001P00XA1_01    Bias_ImageAOI      Distractor
#> 7  MP_Block1_001P00XA1_01   Bias_WindowEnd             245
#> 8  MP_Block1_001P00XA1_01 Bias_WindowStart               0
#> 9  MP_Block1_001P00XA1_01       CarrierEnd              -8
#> 10 MP_Block1_001P00XA1_01     CarrierOnset            -968
#> # ... with 5,049 more rows

tbl_trial_attrs %>% distinct(Key)
#> # A tibble: 26 x 1
#>                 Key
#>               <chr>
#> 1         Attention
#> 2      AttentionEnd
#> 3    AttentionOnset
#> 4             Audio
#> 5   Bias_FrameCount
#> 6     Bias_ImageAOI
#> 7    Bias_WindowEnd
#> 8  Bias_WindowStart
#> 9        CarrierEnd
#> 10     CarrierOnset
#> # ... with 16 more rows
```
